Sep 15, 2015 3:05:40 PM org.apache.solr.servlet.SolrDispatchFilter init
INFO: SolrDispatchFilter.init()
Sep 15, 2015 3:05:40 PM org.apache.solr.core.SolrResourceLoader locateSolrHome
INFO: JNDI not configured for solr (NoInitialContextEx)
Sep 15, 2015 3:05:40 PM org.apache.solr.core.SolrResourceLoader locateSolrHome
INFO: using system property solr.solr.home: solr
Sep 15, 2015 3:05:40 PM org.apache.solr.core.CoreContainer$Initializer initialize
INFO: looking for solr.xml: /home/rakesh/.rvm/gems/ruby-2.1.2@pickingo/bundler/gems/sunspot-9c4ec23487d4/sunspot_solr/solr/solr/solr.xml
Sep 15, 2015 3:05:40 PM org.apache.solr.core.CoreContainer <init>
INFO: New CoreContainer 60167823
Sep 15, 2015 3:05:40 PM org.apache.solr.core.CoreContainer load
INFO: Loading CoreContainer using Solr Home: 'solr/'
Sep 15, 2015 3:05:40 PM org.apache.solr.core.SolrResourceLoader <init>
INFO: new SolrResourceLoader for directory: 'solr/'
Sep 15, 2015 3:05:40 PM org.apache.solr.handler.component.HttpShardHandlerFactory getParameter
INFO: Setting socketTimeout to: 0
Sep 15, 2015 3:05:40 PM org.apache.solr.handler.component.HttpShardHandlerFactory getParameter
INFO: Setting urlScheme to: http://
Sep 15, 2015 3:05:40 PM org.apache.solr.handler.component.HttpShardHandlerFactory getParameter
INFO: Setting connTimeout to: 0
Sep 15, 2015 3:05:40 PM org.apache.solr.handler.component.HttpShardHandlerFactory getParameter
INFO: Setting maxConnectionsPerHost to: 20
Sep 15, 2015 3:05:40 PM org.apache.solr.handler.component.HttpShardHandlerFactory getParameter
INFO: Setting corePoolSize to: 0
Sep 15, 2015 3:05:40 PM org.apache.solr.handler.component.HttpShardHandlerFactory getParameter
INFO: Setting maximumPoolSize to: 2147483647
Sep 15, 2015 3:05:40 PM org.apache.solr.handler.component.HttpShardHandlerFactory getParameter
INFO: Setting maxThreadIdleTime to: 5
Sep 15, 2015 3:05:40 PM org.apache.solr.handler.component.HttpShardHandlerFactory getParameter
INFO: Setting sizeOfQueue to: -1
Sep 15, 2015 3:05:40 PM org.apache.solr.handler.component.HttpShardHandlerFactory getParameter
INFO: Setting fairnessPolicy to: false
Sep 15, 2015 3:05:40 PM org.apache.solr.client.solrj.impl.HttpClientUtil createClient
INFO: Creating new http client, config:maxConnectionsPerHost=20&maxConnections=10000&socketTimeout=0&connTimeout=0&retry=false
Sep 15, 2015 3:05:40 PM org.apache.solr.core.CoreContainer load
INFO: Registering Log Listener
Sep 15, 2015 3:05:41 PM org.apache.solr.core.CoreContainer create
INFO: Creating SolrCore 'default' using instanceDir: solr/.
Sep 15, 2015 3:05:41 PM org.apache.solr.core.CoreContainer create
INFO: Creating SolrCore 'development' using instanceDir: solr/.
Sep 15, 2015 3:05:41 PM org.apache.solr.core.SolrResourceLoader <init>
INFO: new SolrResourceLoader for directory: 'solr/./'
Sep 15, 2015 3:05:41 PM org.apache.solr.core.CoreContainer create
INFO: Creating SolrCore 'test' using instanceDir: solr/.
Sep 15, 2015 3:05:41 PM org.apache.solr.core.SolrResourceLoader <init>
INFO: new SolrResourceLoader for directory: 'solr/./'
Sep 15, 2015 3:05:41 PM org.apache.solr.core.SolrResourceLoader <init>
INFO: new SolrResourceLoader for directory: 'solr/./'
Sep 15, 2015 3:05:41 PM org.apache.solr.core.SolrConfig <init>
INFO: Using Lucene MatchVersion: LUCENE_41
Sep 15, 2015 3:05:41 PM org.apache.solr.core.SolrConfig <init>
INFO: Using Lucene MatchVersion: LUCENE_41
Sep 15, 2015 3:05:41 PM org.apache.solr.core.SolrConfig <init>
INFO: Using Lucene MatchVersion: LUCENE_41
Sep 15, 2015 3:05:41 PM org.apache.solr.core.SolrConfig <init>
INFO: Loaded SolrConfig: solrconfig.xml
Sep 15, 2015 3:05:41 PM org.apache.solr.core.SolrConfig <init>
INFO: Loaded SolrConfig: solrconfig.xml
Sep 15, 2015 3:05:41 PM org.apache.solr.schema.IndexSchema readSchema
INFO: Reading Solr Schema
Sep 15, 2015 3:05:41 PM org.apache.solr.schema.IndexSchema readSchema
INFO: Reading Solr Schema
Sep 15, 2015 3:05:41 PM org.apache.solr.core.SolrConfig <init>
INFO: Loaded SolrConfig: solrconfig.xml
Sep 15, 2015 3:05:41 PM org.apache.solr.schema.IndexSchema readSchema
INFO: Reading Solr Schema
Sep 15, 2015 3:05:41 PM org.apache.solr.schema.IndexSchema readSchema
INFO: Schema name=sunspot
Sep 15, 2015 3:05:41 PM org.apache.solr.schema.IndexSchema readSchema
INFO: Schema name=sunspot
Sep 15, 2015 3:05:41 PM org.apache.solr.schema.IndexSchema readSchema
INFO: Schema name=sunspot
Sep 15, 2015 3:05:41 PM org.apache.solr.schema.IndexSchema readSchema
INFO: default search field in schema is text
Sep 15, 2015 3:05:41 PM org.apache.solr.schema.IndexSchema readSchema
INFO: query parser default operator is AND
Sep 15, 2015 3:05:41 PM org.apache.solr.schema.IndexSchema readSchema
INFO: unique key field: id
Sep 15, 2015 3:05:41 PM org.apache.solr.schema.IndexSchema readSchema
INFO: default search field in schema is text
Sep 15, 2015 3:05:41 PM org.apache.solr.schema.IndexSchema readSchema
INFO: query parser default operator is AND
Sep 15, 2015 3:05:41 PM org.apache.solr.schema.IndexSchema readSchema
INFO: unique key field: id
Sep 15, 2015 3:05:41 PM org.apache.solr.schema.IndexSchema readSchema
INFO: default search field in schema is text
Sep 15, 2015 3:05:41 PM org.apache.solr.schema.IndexSchema readSchema
INFO: query parser default operator is AND
Sep 15, 2015 3:05:41 PM org.apache.solr.schema.IndexSchema readSchema
INFO: unique key field: id
Sep 15, 2015 3:05:41 PM org.apache.solr.core.SolrCore <init>
INFO: [development] Opening new SolrCore at solr/./, dataDir=solr/./development/data/
Sep 15, 2015 3:05:41 PM org.apache.solr.core.SolrCore <init>
INFO: [test] Opening new SolrCore at solr/./, dataDir=solr/./test/data/
Sep 15, 2015 3:05:41 PM org.apache.solr.core.SolrCore <init>
INFO: [default] Opening new SolrCore at solr/./, dataDir=solr/./default/data/
Sep 15, 2015 3:05:41 PM org.apache.solr.core.SolrCore <init>
INFO: JMX monitoring not detected for core: default
Sep 15, 2015 3:05:41 PM org.apache.solr.core.SolrCore <init>
INFO: JMX monitoring not detected for core: development
Sep 15, 2015 3:05:41 PM org.apache.solr.core.SolrCore <init>
INFO: JMX monitoring not detected for core: test
Sep 15, 2015 3:05:41 PM org.apache.solr.core.SolrCore initDirectoryFactory
INFO: solr.NRTCachingDirectoryFactory
Sep 15, 2015 3:05:41 PM org.apache.solr.core.SolrCore initDirectoryFactory
INFO: solr.NRTCachingDirectoryFactory
Sep 15, 2015 3:05:41 PM org.apache.solr.core.SolrCore initDirectoryFactory
INFO: solr.NRTCachingDirectoryFactory
Sep 15, 2015 3:05:41 PM org.apache.solr.core.CachingDirectoryFactory get
INFO: return new directory for /home/rakesh/.rvm/gems/ruby-2.1.2@pickingo/bundler/gems/sunspot-9c4ec23487d4/sunspot_solr/solr/solr/./development/data forceNew: false
Sep 15, 2015 3:05:41 PM org.apache.solr.core.CachingDirectoryFactory get
INFO: return new directory for /home/rakesh/.rvm/gems/ruby-2.1.2@pickingo/bundler/gems/sunspot-9c4ec23487d4/sunspot_solr/solr/solr/./default/data forceNew: false
Sep 15, 2015 3:05:41 PM org.apache.solr.core.CachingDirectoryFactory get
INFO: return new directory for /home/rakesh/.rvm/gems/ruby-2.1.2@pickingo/bundler/gems/sunspot-9c4ec23487d4/sunspot_solr/solr/solr/./test/data forceNew: false
Sep 15, 2015 3:05:41 PM org.apache.solr.core.SolrCore getNewIndexDir
INFO: New index directory detected: old=null new=solr/./default/data/index/
Sep 15, 2015 3:05:41 PM org.apache.solr.core.SolrCore getNewIndexDir
INFO: New index directory detected: old=null new=solr/./development/data/index/
Sep 15, 2015 3:05:41 PM org.apache.solr.core.CachingDirectoryFactory get
INFO: return new directory for /home/rakesh/.rvm/gems/ruby-2.1.2@pickingo/bundler/gems/sunspot-9c4ec23487d4/sunspot_solr/solr/solr/./default/data/index forceNew: false
Sep 15, 2015 3:05:41 PM org.apache.solr.core.SolrCore getNewIndexDir
INFO: New index directory detected: old=null new=solr/./test/data/index/
Sep 15, 2015 3:05:41 PM org.apache.solr.core.CachingDirectoryFactory get
INFO: return new directory for /home/rakesh/.rvm/gems/ruby-2.1.2@pickingo/bundler/gems/sunspot-9c4ec23487d4/sunspot_solr/solr/solr/./development/data/index forceNew: false
Sep 15, 2015 3:05:41 PM org.apache.solr.core.CachingDirectoryFactory get
INFO: return new directory for /home/rakesh/.rvm/gems/ruby-2.1.2@pickingo/bundler/gems/sunspot-9c4ec23487d4/sunspot_solr/solr/solr/./test/data/index forceNew: false
Sep 15, 2015 3:05:41 PM org.apache.solr.core.SolrCore initIndex
WARNING: [development] WARNING: Solr index directory 'solr/./development/data/index/' is locked.  Unlocking...
Sep 15, 2015 3:05:41 PM org.apache.solr.core.SolrCore close
INFO: [development]  CLOSING SolrCore org.apache.solr.core.SolrCore@5b736d8
Sep 15, 2015 3:05:41 PM org.apache.solr.update.SolrCoreState decrefSolrCoreState
INFO: Closing SolrCoreState
Sep 15, 2015 3:05:41 PM org.apache.solr.update.DefaultSolrCoreState closeIndexWriter
INFO: SolrCoreState ref count has reached 0 - closing IndexWriter
Sep 15, 2015 3:05:41 PM org.apache.solr.core.SolrCore closeSearcher
INFO: [development] Closing main searcher on request.
Sep 15, 2015 3:05:41 PM org.apache.solr.core.CachingDirectoryFactory close
INFO: Closing directory when closing factory: /home/rakesh/.rvm/gems/ruby-2.1.2@pickingo/bundler/gems/sunspot-9c4ec23487d4/sunspot_solr/solr/solr/./development/data
Sep 15, 2015 3:05:41 PM org.apache.solr.core.CachingDirectoryFactory closeDirectory
INFO: Closing directory: /home/rakesh/.rvm/gems/ruby-2.1.2@pickingo/bundler/gems/sunspot-9c4ec23487d4/sunspot_solr/solr/solr/./development/data
Sep 15, 2015 3:05:41 PM org.apache.solr.core.CachingDirectoryFactory close
INFO: Closing directory when closing factory: /home/rakesh/.rvm/gems/ruby-2.1.2@pickingo/bundler/gems/sunspot-9c4ec23487d4/sunspot_solr/solr/solr/./development/data/index
Sep 15, 2015 3:05:41 PM org.apache.solr.core.CachingDirectoryFactory closeDirectory
INFO: Closing directory: /home/rakesh/.rvm/gems/ruby-2.1.2@pickingo/bundler/gems/sunspot-9c4ec23487d4/sunspot_solr/solr/solr/./development/data/index
Sep 15, 2015 3:05:41 PM org.apache.solr.core.CoreContainer recordAndThrow
SEVERE: Unable to create core: development
org.apache.solr.common.SolrException: Cannot forcefully unlock a NativeFSLock which is held by another indexer component: solr/./development/data/index/write.lock
	at org.apache.solr.core.SolrCore.<init>(SolrCore.java:806)
	at org.apache.solr.core.SolrCore.<init>(SolrCore.java:619)
	at org.apache.solr.core.CoreContainer.createFromLocal(CoreContainer.java:1021)
	at org.apache.solr.core.CoreContainer.create(CoreContainer.java:1051)
	at org.apache.solr.core.CoreContainer$3.call(CoreContainer.java:634)
	at org.apache.solr.core.CoreContainer$3.call(CoreContainer.java:629)
	at java.util.concurrent.FutureTask.run(FutureTask.java:262)
	at java.util.concurrent.Executors$RunnableAdapter.call(Executors.java:471)
	at java.util.concurrent.FutureTask.run(FutureTask.java:262)
	at java.util.concurrent.ThreadPoolExecutor.runWorker(ThreadPoolExecutor.java:1145)
	at java.util.concurrent.ThreadPoolExecutor$Worker.run(ThreadPoolExecutor.java:615)
	at java.lang.Thread.run(Thread.java:745)
Caused by: org.apache.lucene.store.LockReleaseFailedException: Cannot forcefully unlock a NativeFSLock which is held by another indexer component: solr/./development/data/index/write.lock
	at org.apache.lucene.store.NativeFSLock.release(NativeFSLockFactory.java:295)
	at org.apache.lucene.index.IndexWriter.unlock(IndexWriter.java:4089)
	at org.apache.solr.core.SolrCore.initIndex(SolrCore.java:479)
	at org.apache.solr.core.SolrCore.<init>(SolrCore.java:730)
	... 11 more

Sep 15, 2015 3:05:41 PM org.apache.solr.common.SolrException log
SEVERE: null:org.apache.solr.common.SolrException: Unable to create core: development
	at org.apache.solr.core.CoreContainer.recordAndThrow(CoreContainer.java:1672)
	at org.apache.solr.core.CoreContainer.create(CoreContainer.java:1057)
	at org.apache.solr.core.CoreContainer$3.call(CoreContainer.java:634)
	at org.apache.solr.core.CoreContainer$3.call(CoreContainer.java:629)
	at java.util.concurrent.FutureTask.run(FutureTask.java:262)
	at java.util.concurrent.Executors$RunnableAdapter.call(Executors.java:471)
	at java.util.concurrent.FutureTask.run(FutureTask.java:262)
	at java.util.concurrent.ThreadPoolExecutor.runWorker(ThreadPoolExecutor.java:1145)
	at java.util.concurrent.ThreadPoolExecutor$Worker.run(ThreadPoolExecutor.java:615)
	at java.lang.Thread.run(Thread.java:745)
Caused by: org.apache.solr.common.SolrException: Cannot forcefully unlock a NativeFSLock which is held by another indexer component: solr/./development/data/index/write.lock
	at org.apache.solr.core.SolrCore.<init>(SolrCore.java:806)
	at org.apache.solr.core.SolrCore.<init>(SolrCore.java:619)
	at org.apache.solr.core.CoreContainer.createFromLocal(CoreContainer.java:1021)
	at org.apache.solr.core.CoreContainer.create(CoreContainer.java:1051)
	... 8 more
Caused by: org.apache.lucene.store.LockReleaseFailedException: Cannot forcefully unlock a NativeFSLock which is held by another indexer component: solr/./development/data/index/write.lock
	at org.apache.lucene.store.NativeFSLock.release(NativeFSLockFactory.java:295)
	at org.apache.lucene.index.IndexWriter.unlock(IndexWriter.java:4089)
	at org.apache.solr.core.SolrCore.initIndex(SolrCore.java:479)
	at org.apache.solr.core.SolrCore.<init>(SolrCore.java:730)
	... 11 more

Sep 15, 2015 3:05:41 PM org.apache.solr.core.RequestHandlers initHandlersFromConfig
INFO: created /select: solr.SearchHandler
Sep 15, 2015 3:05:41 PM org.apache.solr.core.RequestHandlers initHandlersFromConfig
INFO: created /select: solr.SearchHandler
Sep 15, 2015 3:05:41 PM org.apache.solr.core.RequestHandlers initHandlersFromConfig
INFO: created /query: solr.SearchHandler
Sep 15, 2015 3:05:41 PM org.apache.solr.core.RequestHandlers initHandlersFromConfig
INFO: created /query: solr.SearchHandler
Sep 15, 2015 3:05:41 PM org.apache.solr.core.RequestHandlers initHandlersFromConfig
INFO: created /get: solr.RealTimeGetHandler
Sep 15, 2015 3:05:41 PM org.apache.solr.core.RequestHandlers initHandlersFromConfig
INFO: created /get: solr.RealTimeGetHandler
Sep 15, 2015 3:05:41 PM org.apache.solr.core.RequestHandlers initHandlersFromConfig
INFO: created /update: solr.UpdateRequestHandler
Sep 15, 2015 3:05:41 PM org.apache.solr.core.RequestHandlers initHandlersFromConfig
INFO: created /update: solr.UpdateRequestHandler
Sep 15, 2015 3:05:41 PM org.apache.solr.core.RequestHandlers initHandlersFromConfig
INFO: created /update/json: solr.JsonUpdateRequestHandler
Sep 15, 2015 3:05:41 PM org.apache.solr.core.RequestHandlers initHandlersFromConfig
INFO: created /update/json: solr.JsonUpdateRequestHandler
Sep 15, 2015 3:05:41 PM org.apache.solr.core.RequestHandlers initHandlersFromConfig
INFO: created /update/csv: solr.CSVRequestHandler
Sep 15, 2015 3:05:41 PM org.apache.solr.core.RequestHandlers initHandlersFromConfig
INFO: created /update/csv: solr.CSVRequestHandler
Sep 15, 2015 3:05:41 PM org.apache.solr.core.RequestHandlers initHandlersFromConfig
INFO: adding lazy requestHandler: solr.extraction.ExtractingRequestHandler
Sep 15, 2015 3:05:41 PM org.apache.solr.core.RequestHandlers initHandlersFromConfig
INFO: adding lazy requestHandler: solr.extraction.ExtractingRequestHandler
Sep 15, 2015 3:05:41 PM org.apache.solr.core.RequestHandlers initHandlersFromConfig
INFO: created /update/extract: solr.extraction.ExtractingRequestHandler
Sep 15, 2015 3:05:41 PM org.apache.solr.core.RequestHandlers initHandlersFromConfig
INFO: created /update/extract: solr.extraction.ExtractingRequestHandler
Sep 15, 2015 3:05:41 PM org.apache.solr.core.RequestHandlers initHandlersFromConfig
INFO: adding lazy requestHandler: solr.FieldAnalysisRequestHandler
Sep 15, 2015 3:05:41 PM org.apache.solr.core.RequestHandlers initHandlersFromConfig
INFO: adding lazy requestHandler: solr.FieldAnalysisRequestHandler
Sep 15, 2015 3:05:41 PM org.apache.solr.core.RequestHandlers initHandlersFromConfig
INFO: created /analysis/field: solr.FieldAnalysisRequestHandler
Sep 15, 2015 3:05:41 PM org.apache.solr.core.RequestHandlers initHandlersFromConfig
INFO: created /analysis/field: solr.FieldAnalysisRequestHandler
Sep 15, 2015 3:05:41 PM org.apache.solr.core.RequestHandlers initHandlersFromConfig
INFO: adding lazy requestHandler: solr.DocumentAnalysisRequestHandler
Sep 15, 2015 3:05:41 PM org.apache.solr.core.RequestHandlers initHandlersFromConfig
INFO: adding lazy requestHandler: solr.DocumentAnalysisRequestHandler
Sep 15, 2015 3:05:41 PM org.apache.solr.core.RequestHandlers initHandlersFromConfig
INFO: created /analysis/document: solr.DocumentAnalysisRequestHandler
Sep 15, 2015 3:05:41 PM org.apache.solr.core.RequestHandlers initHandlersFromConfig
INFO: created /analysis/document: solr.DocumentAnalysisRequestHandler
Sep 15, 2015 3:05:41 PM org.apache.solr.core.RequestHandlers initHandlersFromConfig
INFO: created /admin/ping: solr.PingRequestHandler
Sep 15, 2015 3:05:41 PM org.apache.solr.core.RequestHandlers initHandlersFromConfig
INFO: created /admin/ping: solr.PingRequestHandler
Sep 15, 2015 3:05:41 PM org.apache.solr.core.RequestHandlers initHandlersFromConfig
INFO: created /debug/dump: solr.DumpRequestHandler
Sep 15, 2015 3:05:41 PM org.apache.solr.core.RequestHandlers initHandlersFromConfig
INFO: created /debug/dump: solr.DumpRequestHandler
Sep 15, 2015 3:05:41 PM org.apache.solr.core.RequestHandlers initHandlersFromConfig
INFO: created /replication: solr.ReplicationHandler
Sep 15, 2015 3:05:41 PM org.apache.solr.core.RequestHandlers initHandlersFromConfig
INFO: created /replication: solr.ReplicationHandler
Sep 15, 2015 3:05:41 PM org.apache.solr.core.RequestHandlers initHandlersFromConfig
INFO: created /mlt: solr.MoreLikeThisHandler
Sep 15, 2015 3:05:41 PM org.apache.solr.core.RequestHandlers initHandlersFromConfig
INFO: created /mlt: solr.MoreLikeThisHandler
Sep 15, 2015 3:05:41 PM org.apache.solr.core.RequestHandlers initHandlersFromConfig
INFO: created /admin/: solr.admin.AdminHandlers
Sep 15, 2015 3:05:41 PM org.apache.solr.core.RequestHandlers initHandlersFromConfig
INFO: created /admin/: solr.admin.AdminHandlers
Sep 15, 2015 3:05:41 PM org.apache.solr.handler.loader.XMLLoader init
INFO: xsltCacheLifetimeSeconds=60
Sep 15, 2015 3:05:41 PM org.apache.solr.handler.loader.XMLLoader init
INFO: xsltCacheLifetimeSeconds=60
Sep 15, 2015 3:05:41 PM org.apache.solr.handler.loader.XMLLoader init
INFO: xsltCacheLifetimeSeconds=60
Sep 15, 2015 3:05:41 PM org.apache.solr.handler.loader.XMLLoader init
INFO: xsltCacheLifetimeSeconds=60
Sep 15, 2015 3:05:41 PM org.apache.solr.handler.loader.XMLLoader init
INFO: xsltCacheLifetimeSeconds=60
Sep 15, 2015 3:05:41 PM org.apache.solr.handler.loader.XMLLoader init
INFO: xsltCacheLifetimeSeconds=60
Sep 15, 2015 3:05:41 PM org.apache.solr.search.SolrIndexSearcher <init>
INFO: Opening Searcher@57c9b207 main
Sep 15, 2015 3:05:41 PM org.apache.solr.search.SolrIndexSearcher <init>
INFO: Opening Searcher@24ddb5c9 main
Sep 15, 2015 3:05:41 PM org.apache.solr.update.CommitTracker <init>
INFO: Hard AutoCommit: if uncommited for 15000ms; 
Sep 15, 2015 3:05:41 PM org.apache.solr.update.CommitTracker <init>
INFO: Hard AutoCommit: if uncommited for 15000ms; 
Sep 15, 2015 3:05:41 PM org.apache.solr.update.CommitTracker <init>
INFO: Soft AutoCommit: if uncommited for 5000ms; 
Sep 15, 2015 3:05:41 PM org.apache.solr.update.CommitTracker <init>
INFO: Soft AutoCommit: if uncommited for 5000ms; 
Sep 15, 2015 3:05:41 PM org.apache.solr.handler.component.SpellCheckComponent inform
INFO: Initializing spell checkers
Sep 15, 2015 3:05:41 PM org.apache.solr.handler.component.SpellCheckComponent inform
INFO: Initializing spell checkers
Sep 15, 2015 3:05:41 PM org.apache.solr.handler.component.SpellCheckComponent inform
INFO: Registering newSearcher listener for spellchecker: default
Sep 15, 2015 3:05:41 PM org.apache.solr.handler.component.SpellCheckComponent inform
INFO: Registering newSearcher listener for spellchecker: default
Sep 15, 2015 3:05:41 PM org.apache.solr.spelling.DirectSolrSpellChecker init
INFO: init: {name=example,field=title_text,buildOnCommit=true,classname=solr.DirectSolrSpellChecker,distanceMeasure=internal,accuracy=0.5,maxEdits=2,minPrefix=1,maxInspections=5,minQueryLength=4,maxQueryFrequency=0.01}
Sep 15, 2015 3:05:41 PM org.apache.solr.spelling.DirectSolrSpellChecker init
INFO: init: {name=example,field=title_text,buildOnCommit=true,classname=solr.DirectSolrSpellChecker,distanceMeasure=internal,accuracy=0.5,maxEdits=2,minPrefix=1,maxInspections=5,minQueryLength=4,maxQueryFrequency=0.01}
Sep 15, 2015 3:05:41 PM org.apache.solr.handler.component.SpellCheckComponent inform
INFO: Registering newSearcher listener for spellchecker: example
Sep 15, 2015 3:05:41 PM org.apache.solr.handler.component.SpellCheckComponent inform
INFO: Registering newSearcher listener for spellchecker: example
Sep 15, 2015 3:05:41 PM org.apache.solr.handler.component.SpellCheckComponent inform
INFO: No queryConverter defined, using default converter
Sep 15, 2015 3:05:41 PM org.apache.solr.handler.component.SpellCheckComponent inform
INFO: No queryConverter defined, using default converter
Sep 15, 2015 3:05:41 PM org.apache.solr.handler.ReplicationHandler inform
INFO: Commits will be reserved for  10000
Sep 15, 2015 3:05:41 PM org.apache.solr.handler.ReplicationHandler inform
INFO: Commits will be reserved for  10000
Sep 15, 2015 3:05:41 PM org.apache.solr.core.SolrCore registerSearcher
INFO: [test] Registered new searcher Searcher@57c9b207 main{StandardDirectoryReader(segments_1:1)}
Sep 15, 2015 3:05:41 PM org.apache.solr.core.CoreContainer registerCore
INFO: registering core: test
Sep 15, 2015 3:05:41 PM org.apache.solr.core.CoreContainer registerCore
INFO: registering core: default
Sep 15, 2015 3:05:41 PM org.apache.solr.core.SolrCore registerSearcher
INFO: [default] Registered new searcher Searcher@24ddb5c9 main{StandardDirectoryReader(segments_1:1)}
Sep 15, 2015 3:05:41 PM org.apache.solr.servlet.SolrDispatchFilter init
INFO: user.dir=/home/rakesh/.rvm/gems/ruby-2.1.2@pickingo/bundler/gems/sunspot-9c4ec23487d4/sunspot_solr/solr
Sep 15, 2015 3:05:41 PM org.apache.solr.servlet.SolrDispatchFilter init
INFO: SolrDispatchFilter.init() done
