Seller Name,Seller Address,Seller Pincode,Seller City,Seller Phone Number,Request Id
KAMINI GOSAINE PODDAR,"75 AMRIT NAGAR, PCS BUILDING, SOUTH EXTN PART-1",110003,NEW DELHI,9717870331,P71497664
KAMINI GOSAINE PODDAR,"75 AMRIT NAGAR, PCS BUILDING, SOUTH EXTN PART-1",110003,NEW DELHI,9717870331,P69515498
KAMINI GOSAINE PODDAR,"75 AMRIT NAGAR, PCS BUILDING, SOUTH EXTN PART-1",110003,NEW DELHI,9717870331,P71952125
KAMINI GOSAINE PODDAR,"75 AMRIT NAGAR, PCS BUILDING, SOUTH EXTN PART-1",110003,NEW DELHI,9717870331,P67052569
KAMINI GOSAINE PODDAR,"75 AMRIT NAGAR, PCS BUILDING, SOUTH EXTN PART-1",110003,NEW DELHI,9717870331,P65107985
KAMINI GOSAINE PODDAR,"75 AMRIT NAGAR, PCS BUILDING, SOUTH EXTN PART-1",110003,NEW DELHI,9717870331,P68090466
